********************************************************************************
Steps to execute selenium test for Assessment1

1. Clone project to local drive.
2. Open Project in Netbeans IDE.
3. Expand "assessment1Test" 
4. Expand Source Packages
5. Expand "SampleTest"
6. Right click "GlobalKineticTest"
7. Click Run Test